<svg width="76px" height="100px" viewBox="0 0 76 100" version="1.1" xmlns="http://www.w3.org/2000/svg" xmlns:xlink="http://www.w3.org/1999/xlink">
    <g id="Desktop" stroke="none" stroke-width="1" fill="none" fill-rule="evenodd">
        <g id="Sitio-Home-D001" transform="translate(-352.000000, -1651.000000)">
            <g id="Hoteles" transform="translate(0.000000, 1458.000000)">
                <g id="Info" transform="translate(240.000000, 40.000000)">
                    <g id="Hotel" transform="translate(112.000000, 153.000000)">
                        <path d="M44.182,90.952 L44.182,69.953 L29.181,69.953 L29.181,90.952 L13.181,90.952 L13.181,34.952 L59.181,34.952 L59.181,49.018 C58.15,49.087 57.148,49.257 56.181,49.519 L56.181,42.456 C56.181,39.974 54.16,37.953 51.677,37.953 L50.683,37.953 C48.201,37.953 46.181,39.974 46.181,42.456 L46.181,49.953 L49.181,49.953 L49.181,42.456 C49.181,41.627 49.855,40.953 50.683,40.953 L51.677,40.953 C52.507,40.953 53.181,41.627 53.181,42.456 L53.181,49.953 L54.827,49.953 C48.913,52.155 44.681,57.843 44.681,64.515 C44.681,69.934 49.478,81.557 50.949,84.991 C51.947,87.323 52.84,89.291 53.64,90.953 L44.182,90.953 L44.182,90.952 Z" id="Path" fill="#FED9D5"></path>
                        <polygon id="Path" fill="#FDA79E" points="18.181 23.953 54.18 23.953 54.18 31.951 18.181 31.951"></polygon>
                        <path d="M21.678,37.953 L20.683,37.953 C18.2,37.953 16.18,39.974 16.18,42.456 L16.18,49.953 L19.18,49.953 L19.18,42.456 C19.18,41.627 19.854,40.953 20.683,40.953 L21.678,40.953 C22.507,40.953 23.18,41.627 23.18,42.456 L23.18,49.953 L26.18,49.953 L26.18,42.456 C26.181,39.974 24.161,37.953 21.678,37.953 Z" id="Path" fill="#333333" fill-rule="nonzero"></path>
                        <path d="M21.678,70.953 L20.683,70.953 C18.2,70.953 16.18,72.974 16.18,75.456 L16.18,82.953 L19.18,82.953 L19.18,75.456 C19.18,74.627 19.854,73.953 20.683,73.953 L21.678,73.953 C22.507,73.953 23.18,74.627 23.18,75.456 L23.18,82.953 L26.18,82.953 L26.18,75.456 C26.181,72.974 24.161,70.953 21.678,70.953 Z" id="Path" fill="#333333" fill-rule="nonzero"></path>
                        <path d="M21.678,53.953 L20.683,53.953 C18.2,53.953 16.18,55.974 16.18,58.456 L16.18,65.953 L19.18,65.953 L19.18,58.456 C19.18,57.627 19.854,56.953 20.683,56.953 L21.678,56.953 C22.507,56.953 23.18,57.627 23.18,58.456 L23.18,65.953 L26.18,65.953 L26.18,58.456 C26.181,55.974 24.161,53.953 21.678,53.953 Z" id="Path" fill="#333333" fill-rule="nonzero"></path>
                        <path d="M36.678,37.953 L35.683,37.953 C33.201,37.953 31.181,39.974 31.181,42.456 L31.181,49.953 L34.181,49.953 L34.181,42.456 C34.181,41.627 34.855,40.953 35.683,40.953 L36.678,40.953 C37.507,40.953 38.181,41.627 38.181,42.456 L38.181,49.953 L41.181,49.953 L41.181,42.456 C41.182,39.974 39.162,37.953 36.678,37.953 Z" id="Path" fill="#333333" fill-rule="nonzero"></path>
                        <path d="M36.678,53.953 L35.683,53.953 C33.201,53.953 31.181,55.974 31.181,58.456 L31.181,65.953 L34.181,65.953 L34.181,58.456 C34.181,57.627 34.855,56.953 35.683,56.953 L36.678,56.953 C37.507,56.953 38.181,57.627 38.181,58.456 L38.181,65.953 L41.181,65.953 L41.181,58.456 C41.182,55.974 39.162,53.953 36.678,53.953 Z" id="Path" fill="#333333" fill-rule="nonzero"></path>
                        <polygon id="Shape" fill="#333333" fill-rule="nonzero" points="6.992 18.079 7.631 17.012 8.27 18.079 9.482 18.356 8.664 19.294 8.775 20.533 7.63 20.045 6.486 20.533 6.596 19.294 5.778 18.356"></polygon>
                        <polygon id="Path" fill="#333333" fill-rule="nonzero" points="7.63 23.307 12.209 25.262 11.766 20.302 15.039 16.552 10.186 15.441 7.63 11.169 5.074 15.441 0.221 16.552 3.494 20.302 3.051 25.262"></polygon>
                        <polygon id="Path" fill="#333333" fill-rule="nonzero" points="16.307 16.949 20.888 14.988 23.159 15.96 25.463 16.882 25.021 11.986 28.3 8.237 23.442 7.128 20.887 2.85 18.333 7.128 13.474 8.237 16.754 11.986"></polygon>
                        <polygon id="Path" fill="#333333" fill-rule="nonzero" points="31.7 14.147 36.284 12.177 40.868 14.146 40.413 9.175 43.638 5.408 38.837 4.32 36.283 0.033 33.731 4.32 28.864 5.423 32.153 9.176"></polygon>
                        <polygon id="Path" fill="#333333" fill-rule="nonzero" points="47.037 17.237 51.625 15.264 56.213 17.237 55.754 12.265 59.047 8.514 54.178 7.411 51.625 3.12 49.074 7.412 44.205 8.515 47.498 12.266"></polygon>
                        <polygon id="Path" fill="#333333" fill-rule="nonzero" points="60.605 20.816 60.14 25.794 64.732 23.815 69.322 25.794 68.857 20.816 72.16 17.063 67.281 15.966 64.732 11.665 62.181 15.966 57.304 17.063"></polygon>
                        <path d="M62.182,49.102 L62.182,34.952 L66.182,34.952 L66.182,31.952 L57.18,31.952 L57.18,23.954 L59.188,23.954 L59.188,20.954 L57.18,20.954 L15.181,20.954 L13.175,20.954 L13.175,23.954 L15.181,23.954 L15.181,31.952 L6.181,31.952 L6.181,34.952 L10.181,34.952 L10.181,90.953 L3.181,90.953 L3.181,93.953 L10.181,93.953 L29.181,93.953 L44.182,93.953 L55.157,93.953 C58.364,99.959 59.651,99.967 60.229,99.967 C61.014,99.967 63.098,99.967 69.51,84.991 C70.981,81.557 75.778,69.934 75.778,64.515 C75.777,56.604 69.834,50.067 62.182,49.102 Z M18.181,23.953 L54.18,23.953 L54.18,31.951 L18.181,31.951 L18.181,23.953 Z M59.181,34.952 L59.181,49.018 C58.15,49.087 57.148,49.257 56.181,49.519 L56.181,42.456 C56.181,39.974 54.16,37.953 51.677,37.953 L50.683,37.953 C48.201,37.953 46.181,39.974 46.181,42.456 L46.181,49.953 L49.181,49.953 L49.181,42.456 C49.181,41.627 49.855,40.953 50.683,40.953 L51.677,40.953 C52.507,40.953 53.181,41.627 53.181,42.456 L53.181,49.953 L54.827,49.953 C48.913,52.155 44.681,57.843 44.681,64.515 C44.681,69.934 49.478,81.557 50.949,84.991 C51.947,87.323 52.84,89.291 53.64,90.953 L44.182,90.953 L44.182,69.953 L29.181,69.953 L29.181,90.952 L13.181,90.952 L13.181,34.952 L59.181,34.952 Z M41.182,72.953 L41.182,90.952 L32.181,90.952 L32.181,72.953 L41.182,72.953 Z" id="Shape" fill="#333333" fill-rule="nonzero"></path>
                        <polygon id="Path" fill="#A3243A" points="32.181 90.952 32.181 72.953 41.182 72.953 41.182 90.952"></polygon>
                        <path d="M60.229,51.966 C67.149,51.966 72.778,57.595 72.778,64.515 C72.777,71.167 63.434,92.642 60.229,96.582 C57.026,92.642 47.682,71.167 47.682,64.515 C47.682,57.595 53.311,51.966 60.229,51.966 Z M60.23,60.16 C57.828,60.16 55.875,62.113 55.875,64.514 C55.875,66.915 57.828,68.868 60.23,68.868 C62.631,68.868 64.584,66.915 64.584,64.514 C64.584,62.113 62.63,60.16 60.23,60.16 Z" id="Combined-Shape" fill="#FC7667"></path>
                        <path d="M60.23,57.161 C56.173,57.161 52.875,60.46 52.875,64.515 C52.875,68.57 56.174,71.869 60.23,71.869 C64.285,71.869 67.584,68.57 67.584,64.515 C67.584,60.46 64.285,57.161 60.23,57.161 Z" id="Path" fill="#333333" fill-rule="nonzero"></path>
                        <path d="M60.23,68.868 C57.828,68.868 55.875,66.915 55.875,64.514 C55.875,62.113 57.828,60.16 60.23,60.16 C62.63,60.16 64.584,62.113 64.584,64.514 C64.584,66.915 62.631,68.868 60.23,68.868 Z" id="Path" fill="#FED9D5"></path>
                    </g>
                </g>
            </g>
        </g>
    </g>
</svg>